Murex_id;Trade_id;Payment_id;Trade_fin_operation;Trade_timestamp;Trader_st;Trader_num;Trade_counterparty_st;Trade_counterparty_num;Trade_market;Trade_direction;Nominal_1;Nominal_2;Trade_ccy_1;Trade_ccy_2;Trade_Price;Trade_payment_date_1;Trade_payment_date_2;Trade_netting_flag;Payment_amount;Payment_ccy;Payment_date;Payment_direction;Payment_netting;Payment_fin_op;Payment_creation_timestamp;Latest_payment_state;Status_timestamp
0;10002245195;10009410357;"$RU_FOREX ";29/06/2011 17:03:00;"NO_DEALER                                                   ";10000000069;НКО НКЦ (АО);10095015970;"RU        ";1;43000,00;1203140,00;"USD                      ";"RUR                      ";27,98;30/06/2011;30/06/2011;1;1203140.0000000000;"RUR                      ";30/06/2011;1;0;$ПЛ_ПОКВАЛ;29/06/2011 17:03:00;"Платеж    ";29/06/2011 17:03:01
0;10003340105;10038038910;"$NC_FOREX ";28/11/2013 15:06:45;"Соловьева Ирина Сергеевна                                   ";10000000229;"ПАО ""ГАЗПРОМ НЕФТЬ""";10095016863;"NC        ";1;12900000,00;17544000,00;"XXX                      ";"USD                      ";1,36;24/12/2019;24/12/2019;0;12900000.0000000000;"EUR                      ";24/12/2019;0;0;$ПЛ_ПРДВАЛ;24/12/2019 12:16:00;"Реестр    ";24/12/2019 12:56:05
0;10003340105;10038038911;"$NC_FOREX ";28/11/2013 15:06:45;"Соловьева Ирина Сергеевна                                   ";10000000229;"ПАО ""ГАЗПРОМ НЕФТЬ""";10095016863;"NC        ";1;12900000,00;17544000,00;"EUR                      ";"USD                      ";1,36;24/12/2019;24/12/2019;0;17544000.0000000000;"USD                      ";24/12/2019;1;0;$ПЛ_ПОКВАЛ;24/12/2019 12:16:00;"Реестр    ";24/12/2019 12:20:46
0;10003340106;10042133425;"$NC_FOREX ";28/11/2013 15:07:06;"Соловьева Ирина Сергеевна                                   ";10000000229;"ПАО ""ГАЗПРОМ НЕФТЬ""";10095016863;"NC        ";1;12900000,00;17544000,00;"EUR                      ";"USD                      ";1,36;25/06/2020;25/06/2020;0;17544000.0000000000;"USD                      ";25/06/2020;1;0;$ПЛ_ПОКВАЛ;25/06/2020 08:50:00;"Реестр    ";25/06/2020 08:50:15
0;10003340106;10042133740;"$NC_FOREX ";28/11/2013 15:07:06;"Соловьева Ирина Сергеевна                                   ";10000000229;"ПАО ""ГАЗПРОМ НЕФТЬ""";10095016863;"NC        ";1;12900000,00;17544000,00;"EUR                      ";"USD                      ";1,36;25/06/2020;25/06/2020;0;12900000.0000000000;"EUR                      ";25/06/2020;0;0;$ПЛ_ПРДВАЛ;25/06/2020 09:12:00;"Реестр    ";25/06/2020 14:33:44
0;10003779978;10037429973;"$NC_FOREX ";12/08/2014 19:43:00;"Соловьева Ирина Сергеевна                                   ";10000000229;BARCLAYS BANK PLC WHOLESALE, LONDON;10095015415;"NC        ";1;534240000,00;400000000,00;"USD                      ";"EUR                      ";1,3356;15/11/2019;15/11/2019;0;534240000.0000000000;"USD                      ";15/11/2019;0;0;$ПЛ_ПРДВАЛ;14/11/2019 17:02:00;"Платеж    ";14/11/2019 17:01:53
0;10003779978;10037429958;"$NC_FOREX ";12/08/2014 19:43:00;"Соловьева Ирина Сергеевна                                   ";10000000229;BARCLAYS BANK PLC WHOLESALE, LONDON;10095015415;"NC        ";1;534240000,00;400000000,00;"USD                      ";"EUR                      ";1,3356;15/11/2019;15/11/2019;0;400000000.0000000000;"EUR                      ";15/11/2019;1;0;$ПЛ_ПОКВАЛ;14/11/2019 17:02:00;"Платеж    ";14/11/2019 17:01:30
